# Nmap 7.80 scan initiated Sun May  9 18:14:00 2021 as: nmap -sV -sC -sS -p- -oN nmap.txt 10.129.143.202
Nmap scan report for 10.129.143.202
Host is up (0.12s latency).
Not shown: 65532 closed ports
PORT     STATE SERVICE VERSION
22/tcp   open  ssh     OpenSSH 7.9p1 Debian 10+deb10u2 (protocol 2.0)
| ssh-hostkey: 
|   2048 9c:40:fa:85:9b:01:ac:ac:0e:bc:0c:19:51:8a:ee:27 (RSA)
|   256 5a:0c:c0:3b:9b:76:55:2e:6e:c4:f4:b9:5d:76:17:09 (ECDSA)
|_  256 b7:9d:f7:48:9d:a2:f2:76:30:fd:42:d3:35:3a:80:8c (ED25519)
80/tcp   open  http    nginx 1.14.2
|_http-server-header: nginx/1.14.2
|_http-title: Welcome
8065/tcp open  unknown
| fingerprint-strings: 
|   GenericLines, Help, RTSPRequest, SSLSessionReq, TerminalServerCookie: 
|     HTTP/1.1 400 Bad Request
|     Content-Type: text/plain; charset=utf-8
|     Connection: close
|     Request
|   GetRequest: 
|     HTTP/1.0 200 OK
|     Accept-Ranges: bytes
|     Cache-Control: no-cache, max-age=31556926, public
|     Content-Length: 3108
|     Content-Security-Policy: frame-ancestors 'self'; script-src 'self' cdn.rudderlabs.com
|     Content-Type: text/html; charset=utf-8
|     Last-Modified: Sun, 09 May 2021 21:35:08 GMT
|     X-Frame-Options: SAMEORIGIN
|     X-Request-Id: 4r9csr6wmjfkuk7yhxtconr4ge
|     X-Version-Id: 5.30.0.5.30.1.57fb31b889bf81d99d8af8176d4bbaaa.false
|     Date: Sun, 09 May 2021 22:22:16 GMT
|     <!doctype html><html lang="en"><head><meta charset="utf-8"><meta name="viewport" content="width=device-width,initial-scale=1,maximum-scale=1,user-scalable=0"><meta name="robots" content="noindex, nofollow"><meta name="referrer" content="no-referrer"><title>Mattermost</title><meta name="mobile-web-app-capable" content="yes"><meta name="application-name" content="Mattermost"><meta name="format-detection" content="telephone=no"><link re
|   HTTPOptions: 
|     HTTP/1.0 405 Method Not Allowed
|     Date: Sun, 09 May 2021 22:22:16 GMT
|_    Content-Length: 0
1 service unrecognized despite returning data. If you know the service/version, please submit the following fingerprint at https://nmap.org/cgi-bin/submit.cgi?new-service :
SF-Port8065-TCP:V=7.80%I=7%D=5/9%Time=60986091%P=x86_64-pc-linux-gnu%r(Gen
SF:ericLines,67,"HTTP/1\.1\x20400\x20Bad\x20Request\r\nContent-Type:\x20te
SF:xt/plain;\x20charset=utf-8\r\nConnection:\x20close\r\n\r\n400\x20Bad\x2
SF:0Request")%r(GetRequest,DF3,"HTTP/1\.0\x20200\x20OK\r\nAccept-Ranges:\x
SF:20bytes\r\nCache-Control:\x20no-cache,\x20max-age=31556926,\x20public\r
SF:\nContent-Length:\x203108\r\nContent-Security-Policy:\x20frame-ancestor
SF:s\x20'self';\x20script-src\x20'self'\x20cdn\.rudderlabs\.com\r\nContent
SF:-Type:\x20text/html;\x20charset=utf-8\r\nLast-Modified:\x20Sun,\x2009\x
SF:20May\x202021\x2021:35:08\x20GMT\r\nX-Frame-Options:\x20SAMEORIGIN\r\nX
SF:-Request-Id:\x204r9csr6wmjfkuk7yhxtconr4ge\r\nX-Version-Id:\x205\.30\.0
SF:\.5\.30\.1\.57fb31b889bf81d99d8af8176d4bbaaa\.false\r\nDate:\x20Sun,\x2
SF:009\x20May\x202021\x2022:22:16\x20GMT\r\n\r\n<!doctype\x20html><html\x2
SF:0lang=\"en\"><head><meta\x20charset=\"utf-8\"><meta\x20name=\"viewport\
SF:"\x20content=\"width=device-width,initial-scale=1,maximum-scale=1,user-
SF:scalable=0\"><meta\x20name=\"robots\"\x20content=\"noindex,\x20nofollow
SF:\"><meta\x20name=\"referrer\"\x20content=\"no-referrer\"><title>Matterm
SF:ost</title><meta\x20name=\"mobile-web-app-capable\"\x20content=\"yes\">
SF:<meta\x20name=\"application-name\"\x20content=\"Mattermost\"><meta\x20n
SF:ame=\"format-detection\"\x20content=\"telephone=no\"><link\x20re")%r(HT
SF:TPOptions,5B,"HTTP/1\.0\x20405\x20Method\x20Not\x20Allowed\r\nDate:\x20
SF:Sun,\x2009\x20May\x202021\x2022:22:16\x20GMT\r\nContent-Length:\x200\r\
SF:n\r\n")%r(RTSPRequest,67,"HTTP/1\.1\x20400\x20Bad\x20Request\r\nContent
SF:-Type:\x20text/plain;\x20charset=utf-8\r\nConnection:\x20close\r\n\r\n4
SF:00\x20Bad\x20Request")%r(Help,67,"HTTP/1\.1\x20400\x20Bad\x20Request\r\
SF:nContent-Type:\x20text/plain;\x20charset=utf-8\r\nConnection:\x20close\
SF:r\n\r\n400\x20Bad\x20Request")%r(SSLSessionReq,67,"HTTP/1\.1\x20400\x20
SF:Bad\x20Request\r\nContent-Type:\x20text/plain;\x20charset=utf-8\r\nConn
SF:ection:\x20close\r\n\r\n400\x20Bad\x20Request")%r(TerminalServerCookie,
SF:67,"HTTP/1\.1\x20400\x20Bad\x20Request\r\nContent-Type:\x20text/plain;\
SF:x20charset=utf-8\r\nConnection:\x20close\r\n\r\n400\x20Bad\x20Request");
Service Info: OS: Linux; CPE: cpe:/o:linux:linux_kernel

Service detection performed. Please report any incorrect results at https://nmap.org/submit/ .
# Nmap done at Sun May  9 18:23:40 2021 -- 1 IP address (1 host up) scanned in 580.49 seconds
